Reporte: Biblioteca Nacional del Perú (2023)
…
## # A tibble: 7 × 1
##   PRODUCTO                                                     
##   <chr>                                                        
## 1 CARTUCHO LIMPIADOR PARA HP  COD. REF. C7978A                 
## 2 CARTULINA SIMPLE 140 g TAMAÑO  A4                            
## 3 CARTUCHO DE MANTENIMIENTO PARA XEROX COD. REF. 106R01081     
## 4 CARTULINA SIMPLE 140 g TAMAÑO A4                             
## 5 CARTULINA FINA 150 g TAMAÑO A3                               
## 6 CARTON GRIS CALIBRE 16  DE 1 m X 70 cm                       
## 7 CARTULINA TIPO CANSON 150 G DE 50 CM X 65 CM COLOR GRIS CLARO

raw_data2 %>% group_by(PRODUCTO) %>% summarise(suma = sum(CANTIDAD)) %>% arrange(desc(suma))

## # A tibble: 371 × 2
##    PRODUCTO                                                     suma
##    <chr>                                                       <dbl>
##  1 CARTULINA SIMPLE 140 g TAMAÑO A4                          190000 
##  2 CONTRATAPA PLASTIFICADA DE CARTON PARA ANILLADO TAMAÑO A4 120000 
##  3 CARTULINA FINA 150 g TAMAÑO A3                             95000 
##  4 ETIQUETA AUTOADHESIVA 5 CM X 2.5 CM                        50000 
##  5 ESPIRAL DE PLASTICO 30 MM                                  45000 
##  6 GAS LICUADO DE PETROLEO                                    28553.
##  7 GORRO QUIRURGICO DESCARTABLE                                6000 
##  8 GUANTE DE NAILON CON PALMA DE NITRILO TALLA L               6000 
##  9 GUANTE DE NAILON CON PALMA DE NITRILO TALLA M               6000 
## 10 GUANTE DE NAILON CON PALMA DE NITRILO TALLA S               6000 
## # ℹ 361 more rows

Si dejamos pasar este error el programa va a contabilizar de forma
incorrecta. Así que vamos a corregirlo. Generaremos una nueva variable
llamada “raw_data3” para almacenar la información corregida.

raw_data3 <- raw_data2 %>%
  mutate(PRODUCTO = str_squish(PRODUCTO))

Haciendo un nuevo conteo de las cantidades.

raw_data3 %>% group_by(PRODUCTO) %>% summarise(suma = sum(CANTIDAD)) %>% arrange(desc(suma))

## # A tibble: 370 × 2
##    PRODUCTO                                                     suma
##    <chr>                                                       <dbl>
##  1 CARTULINA SIMPLE 140 g TAMAÑO A4                          190040 
##  2 CONTRATAPA PLASTIFICADA DE CARTON PARA ANILLADO TAMAÑO A4 120000 
##  3 CARTULINA FINA 150 g TAMAÑO A3                             95000 
##  4 ETIQUETA AUTOADHESIVA 5 CM X 2.5 CM                        50000 
##  5 ESPIRAL DE PLASTICO 30 MM                                  45000 
##  6 GAS LICUADO DE PETROLEO                                    28553.
##  7 GORRO QUIRURGICO DESCARTABLE                                6000 
##  8 GUANTE DE NAILON CON PALMA DE NITRILO TALLA L               6000 
##  9 GUANTE DE NAILON CON PALMA DE NITRILO TALLA M               6000 
## 10 GUANTE DE NAILON CON PALMA DE NITRILO TALLA S               6000 
## # ℹ 360 more rows
…
